<?xml version="1.0"?>
<svg xmlns="http://www.w3.org/2000/svg" xmlns:xlink="http://www.w3.org/1999/xlink" version="1.1" id="Capa_1" x="0px" y="0px" viewBox="0 0 448.011 448.011" style="enable-background:new 0 0 448.011 448.011;" xml:space="preserve" width="512px" height="512px"><g><g>
	<g>
		<path d="M438.731,209.463l-416-192c-6.624-3.008-14.528-1.216-19.136,4.48c-4.64,5.696-4.8,13.792-0.384,19.648l136.8,182.4    l-136.8,182.4c-4.416,5.856-4.256,13.984,0.352,19.648c3.104,3.872,7.744,5.952,12.448,5.952c2.272,0,4.544-0.48,6.688-1.472    l416-192c5.696-2.624,9.312-8.288,9.312-14.528S444.395,212.087,438.731,209.463z" data-original="#000000" class="active-path" data-old_color="#000000" fill="#F06400"/>
	</g>
</g></g> </svg>
