<?xml version="1.0" encoding="utf-8"?>
<!-- Generator: Adobe Illustrator 23.1.1, SVG Export Plug-In . SVG Version: 6.00 Build 0)  -->
<svg version="1.1" id="Laag_1" xmlns="http://www.w3.org/2000/svg" xmlns:xlink="http://www.w3.org/1999/xlink" x="0px" y="0px"
	 viewBox="0 0 150 150" style="enable-background:new 0 0 150 150;" xml:space="preserve">
<style type="text/css">
	.st0{fill:#595656;}
</style>
<g>
	<path class="st0" d="M120.1,126.1H35.5V24.5h50.8V52c0,3.5,2.8,6.3,6.3,6.3h27.5L120.1,126.1L120.1,126.1z M94.7,25
		c1.1,0.4,2.2,1,2.7,1.5l20.7,20.7c0.5,0.5,1.1,1.6,1.5,2.7H94.7V25z M124.1,41.2l-20.6-20.6C101,18.1,96.1,16,92.6,16H33.3
		c-3.5,0-6.4,2.8-6.4,6.4v105.8c0,3.5,2.8,6.4,6.4,6.4h88.9c3.5,0,6.4-2.8,6.4-6.4V52C128.6,48.5,126.6,43.6,124.1,41.2"/>
</g>
</svg>
