<?xml version="1.0" encoding="utf-8"?>
<!-- Generator: Adobe Illustrator 23.1.1, SVG Export Plug-In . SVG Version: 6.00 Build 0)  -->
<svg version="1.1" id="Laag_1" xmlns="http://www.w3.org/2000/svg" xmlns:xlink="http://www.w3.org/1999/xlink" x="0px" y="0px"
	 viewBox="0 0 150 150" style="enable-background:new 0 0 150 150;" xml:space="preserve">
<style type="text/css">
	.st0{fill:#575555;}
	.st1{fill:#FFFFFF;}
</style>
<path class="st0" d="M111.6,79.5c-11.9,0-21.5,9.9-21.5,22.1s9.6,22.1,21.5,22.1s21.5-9.9,21.5-22.1c0,0,0,0,0,0
	C133.1,89.4,123.5,79.5,111.6,79.5z"/>
<g>
	<g>
		<path class="st0" d="M93.1,120.6c-4.9-5.1-7.7-11.8-7.7-19c0-6.1,2-11.7,5.3-16.2h-8.6L64.3,73.6v-4.7c1.1,0,2.2-1.2,3.2-3.5
			c1-2.3,1.4-4.3,1.4-5.9V50c0-3.9-1.3-7.2-4-10c-2.7-2.8-5.9-4.2-9.7-4.2s-7,1.4-9.7,4.2c-2.7,2.8-4,6.1-4,10v9.4
			c0,1.6,0.5,3.6,1.5,5.9c1,2.3,2,3.5,3.2,3.5v4.7L28,85.4h-1.1c-1.1,0-2-0.9-2-2v-53c0-1.1,0.9-2,2-2h99.4c1.1,0,2,1,2,2V81
			c3.6,3.1,6.4,7.2,7.9,11.8V30.3c0-5.6-4.5-10.2-9.9-10.2H26.9c-5.5,0-9.9,4.6-9.9,10.2v69.4c0,5.6,4.5,10.2,9.9,10.2h33.8
			c0,5.5-4,9.9-4,12.2c0,2.2,1.8,4.1,4,4.1h31.8c1.7,0,3.2-1.2,3.8-2.8C95.2,122.5,94.1,121.6,93.1,120.6z"/>
	</g>
</g>
<g>
	<g>
		<path class="st0" d="M115,45.9c0-7.7-8.5-13.9-18.9-13.9s-18.9,6.2-18.9,13.9c0,4.2,2.6,8,6.6,10.5c-0.6,4.6-2.1,5.6-3.5,6.9
			c-0.2,0.2-0.5,0.5-0.4,0.8c0.1,0.3,0.4,0.6,0.7,0.5c0.6-0.1,1.2-0.2,1.8-0.3c3.6-0.8,6.8-2.5,9.2-5c1.4,0.3,2.9,0.4,4.5,0.4
			C106.6,59.8,115,53.6,115,45.9 M106.9,45.9c0,1.5-1.2,2.8-2.7,2.8s-2.7-1.2-2.7-2.8c0-1.5,1.2-2.8,2.7-2.8
			C105.7,43.2,106.9,44.4,106.9,45.9 M98.8,45.9c0,1.5-1.2,2.8-2.7,2.8c-1.5,0-2.7-1.2-2.7-2.8c0-1.5,1.2-2.8,2.7-2.8
			C97.6,43.2,98.8,44.4,98.8,45.9 M90.7,45.9c0,1.5-1.2,2.8-2.7,2.8s-2.7-1.2-2.7-2.8c0-1.5,1.2-2.8,2.7-2.8S90.7,44.4,90.7,45.9"/>
	</g>
	<path class="st0" d="M116.9,62.1c3.4-2,5.6-5.2,5.6-8.7c0-3.6-2.3-6.8-5.9-8.8c0.3,1.1,0.5,2.2,0.5,3.3c0,3.9-1.9,7.5-5.5,10.1
		c-3.3,2.4-7.6,3.8-12.1,3.8c-0.6,0-1.2,0-1.9-0.1c2.6,1.8,6.2,2.9,10,2.9c1.3,0,2.5-0.1,3.7-0.3c1.8,1.3,3.7,2.2,5.9,2.8
		c0.6,0.2,1.2,0.3,1.8,0.3c0.3,0,0.7-0.2,0.7-0.6c0.1-0.4-0.2-0.7-0.4-0.9C118.6,64.7,117.7,63.9,116.9,62.1"/>
</g>
<g>
	<path class="st1" d="M122.4,94.2c0-0.9-0.8-1.7-1.7-1.7h-1.7v-1.3c0-1.2-0.9-2.1-2.1-2.1h-0.8c-1.1,0-2.1,1-2.1,2.1v1.3h-5v-1.3
		c0-1.2-0.9-2.1-2.1-2.1h-0.8c-1.1,0-2.1,1-2.1,2.1v1.3h-1.7c-0.9,0-1.7,0.8-1.7,1.7v17.1c0,0.9,0.8,1.7,1.7,1.7h18.3
		c0.9,0,1.7-0.8,1.7-1.7L122.4,94.2L122.4,94.2z M117.4,95.1c0,0.2-0.2,0.4-0.4,0.4h-0.8c-0.2,0-0.4-0.2-0.4-0.4v-3.8
		c0-0.2,0.2-0.4,0.4-0.4h0.8c0.2,0,0.4,0.2,0.4,0.4V95.1z M107.4,95.1c0,0.2-0.2,0.4-0.4,0.4h-0.8c-0.2,0-0.4-0.2-0.4-0.4v-3.8
		c0-0.2,0.2-0.4,0.4-0.4h0.8c0.2,0,0.4,0.2,0.4,0.4V95.1z M102.4,97.6h18.3v13.7h-18.3V97.6z"/>
</g>
</svg>
