<?xml version="1.0" encoding="utf-8"?>
<!-- Generator: Adobe Illustrator 23.1.1, SVG Export Plug-In . SVG Version: 6.00 Build 0)  -->
<svg version="1.1" id="Laag_1" xmlns="http://www.w3.org/2000/svg" xmlns:xlink="http://www.w3.org/1999/xlink" x="0px" y="0px"
	 viewBox="0 0 150 150" style="enable-background:new 0 0 150 150;" xml:space="preserve">
<style type="text/css">
	.st0{fill:#FFFFFF;}
</style>
<g>
	<path class="st0" d="M116.4,126.5h-85v-102h51v27.62c0,3.52,2.86,6.38,6.38,6.38h27.62V126.5z M90.9,25.03
		c1.13,0.4,2.26,1,2.72,1.46l20.79,20.79c0.46,0.46,1.06,1.59,1.46,2.72H90.9V25.03z M120.39,41.23L99.67,20.51
		C97.21,18.06,92.3,16,88.78,16h-59.5c-3.52,0-6.38,2.86-6.38,6.37v106.25c0,3.52,2.86,6.37,6.38,6.37h89.25
		c3.52,0,6.37-2.86,6.37-6.37v-76.5C124.9,48.61,122.85,43.69,120.39,41.23"/>
</g>
</svg>
